Raster and Vector Data Cubes Across Spatial Data Science Languages
…
path_farms = "C:/Users/Yomna Eid/Documents/1b. PhD/DataCubes_Tutorial/shp/T_LAFIS_32632_buffered_classified_10percent.shp"

"C:/Users/Yomna Eid/Documents/1b. PhD/DataCubes_Tutorial/shp/T_LAFIS_32632_buffered_classified_10percent.shp"

farm_polygons = Shapefile.Table(joinpath("../data", path_farms))

Shapefile.Table{Union{Missing, Shapefile.Polygon}} with 3431 rows and the following 11 columns:
    
geometry, ID, CODE, DESCR_IT, DESCR_DE, elev, northness, slope, area, face, class

df = DataFrame(farm_polygons)

3431×11 DataFrame
  Row │ geometry             ID       CODE     DESCR_IT       DESCR_DE         ⋯
      │ Polygon?             Int64?   String?  String?        String?          ⋯
──────┼─────────────────────────────────────────────────────────────────────────
    1 │ Polygon(130 Points)  2773902  AP2      Prato stabile  Wiese (Dauerwies ⋯
    2 │ Polygon(88 Points)   1782222  AP2      Prato stabile  Wiese (Dauerwies
    3 │ Polygon(32 Points)   3052062  AP2      Prato stabile  Wiese (Dauerwies
    4 │ Polygon(83 Points)   3106782  AP2      Prato stabile  Wiese (Dauerwies
    5 │ Polygon(64 Points)   2763340  AP2      Prato stabile  Wiese (Dauerwies ⋯
    6 │ Polygon(92 Points)   2192067  AP2      Prato stabile  Wiese (Dauerwies
    7 │ Polygon(54 Points)   2356161  AP2      Prato stabile  Wiese (Dauerwies
    8 │ Polygon(264 Points)  3030843  AP2      Prato stabile  Wiese (Dauerwies
  ⋮   │          ⋮              ⋮        ⋮           ⋮                ⋮        ⋱
 3425 │ Polygon(81 Points)   2741635  AP2      Prato stabile  Wiese (Dauerwies ⋯
 3426 │ Polygon(63 Points)   2989404  AP2      Prato stabile  Wiese (Dauerwies
 3427 │ Polygon(24 Points)   3098873  AP2      Prato stabile  Wiese (Dauerwies
 3428 │ Polygon(29 Points)   2861437  AP2      Prato stabile  Wiese (Dauerwies
 3429 │ Polygon(28 Points)   2347004  AP2      Prato stabile  Wiese (Dauerwies ⋯
 3430 │ Polygon(14 Points)   2184932  AP2      Prato stabile  Wiese (Dauerwies
 3431 │ Polygon(70 Points)   2956176  AP2      Prato stabile  Wiese (Dauerwies
                                                 7 columns and 3416 rows omitted
…
Reshape the data to be in 2D format

Convert to data frames & target to long format

predictors_df <- as.data.frame(merged_all_rtc) #, long = TRUE
target_df <- as.data.frame(lai_merged)

variable_names = list(merged_ds.data_vars.keys())
df = merged_ds.xvec.to_geodataframe()

df_bands = DataFrame(DimTable(lai_catt; layersfrom=:Band))

4554×11 DataFrame
  Row │ Geometry                           Ti                   Band_asc_RTC_V ⋯
      │ MultiPol…                          DateTime             Float32        ⋯
──────┼─────────────────────────────────────────────────────────────────────────
    1 │ GeoInterface.Wrappers.MultiPolyg…  2023-04-03T10:05:51        -10.7468 ⋯
    2 │ GeoInterface.Wrappers.MultiPolyg…  2023-04-03T10:05:51        -12.1106
    3 │ GeoInterface.Wrappers.MultiPolyg…  2023-04-03T10:05:51        -10.9837
    4 │ GeoInterface.Wrappers.MultiPolyg…  2023-04-03T10:05:51        -11.1868
    5 │ GeoInterface.Wrappers.MultiPolyg…  2023-04-03T10:05:51        -11.1082 ⋯
    6 │ GeoInterface.Wrappers.MultiPolyg…  2023-04-03T10:05:51         -9.8711
    7 │ GeoInterface.Wrappers.MultiPolyg…  2023-04-03T10:05:51        -11.2604
    8 │ GeoInterface.Wrappers.MultiPolyg…  2023-04-03T10:05:51        -11.7162
  ⋮   │                 ⋮                           ⋮                  ⋮       ⋱
 4548 │ GeoInterface.Wrappers.MultiPolyg…  2023-10-30T10:11:41         -8.8098 ⋯
 4549 │ GeoInterface.Wrappers.MultiPolyg…  2023-10-30T10:11:41         -8.2791
 4550 │ GeoInterface.Wrappers.MultiPolyg…  2023-10-30T10:11:41         -8.3464
 4551 │ GeoInterface.Wrappers.MultiPolyg…  2023-10-30T10:11:41         -8.7290
 4552 │ GeoInterface.Wrappers.MultiPolyg…  2023-10-30T10:11:41         -8.4337 ⋯
 4553 │ GeoInterface.Wrappers.MultiPolyg…  2023-10-30T10:11:41         -8.5832
 4554 │ GeoInterface.Wrappers.MultiPolyg…  2023-10-30T10:11:41         -9.0745
                                                 9 columns and 4539 rows omitted

size(df_bands)

(4554, 11)

# filter out rows with NaN values
df_clean = filter(row -> all(x -> !(x isa Number && isnan(x)), row), df_bands)

1273×11 DataFrame
  Row │ Geometry                           Ti                   Band_asc_RTC_V ⋯
      │ MultiPol…                          DateTime             Float32        ⋯
──────┼─────────────────────────────────────────────────────────────────────────
    1 │ GeoInterface.Wrappers.MultiPolyg…  2023-04-03T10:05:51        -10.7468 ⋯
    2 │ GeoInterface.Wrappers.MultiPolyg…  2023-04-03T10:05:51        -10.9837
    3 │ GeoInterface.Wrappers.MultiPolyg…  2023-04-03T10:05:51        -11.1868
    4 │ GeoInterface.Wrappers.MultiPolyg…  2023-04-03T10:05:51        -11.1082
    5 │ GeoInterface.Wrappers.MultiPolyg…  2023-04-03T10:05:51        -11.2604 ⋯
    6 │ GeoInterface.Wrappers.MultiPolyg…  2023-04-03T10:05:51        -11.7162
    7 │ GeoInterface.Wrappers.MultiPolyg…  2023-04-03T10:05:51        -10.0387
    8 │ GeoInterface.Wrappers.MultiPolyg…  2023-04-03T10:05:51         -9.8646
  ⋮   │                 ⋮                           ⋮                  ⋮       ⋱
 1267 │ GeoInterface.Wrappers.MultiPolyg…  2023-10-23T10:21:01         -8.4740 ⋯
 1268 │ GeoInterface.Wrappers.MultiPolyg…  2023-10-23T10:21:01         -8.2571
 1269 │ GeoInterface.Wrappers.MultiPolyg…  2023-10-23T10:21:01         -8.3574
 1270 │ GeoInterface.Wrappers.MultiPolyg…  2023-10-23T10:21:01         -8.9389
 1271 │ GeoInterface.Wrappers.MultiPolyg…  2023-10-23T10:21:01         -8.3676 ⋯
 1272 │ GeoInterface.Wrappers.MultiPolyg…  2023-10-23T10:21:01         -8.6315
 1273 │ GeoInterface.Wrappers.MultiPolyg…  2023-10-23T10:21:01         -7.3216
                                                 9 columns and 1258 rows omitted
…
